%YAML 1.1
%TAG !u! tag:unity3d.com,2011:
--- !u!114 &11400000
MonoBehaviour:
  m_ObjectHideFlags: 0
  m_CorrespondingSourceObject: {fileID: 0}
  m_PrefabInstance: {fileID: 0}
  m_PrefabAsset: {fileID: 0}
  m_GameObject: {fileID: 0}
  m_Enabled: 1
  m_EditorHideFlags: 0
  m_Script: {fileID: 11500000, guid: 9288821c9252ba34e8ef73b9c91194ba, type: 3}
  m_Name: Borne75
  m_EditorClassIdentifier: 
  cardName: Borne75
  description: Borne
  icon: {fileID: 21300000, guid: a4a025c201f2a61439d2d0643668a054, type: 3}
  valeur: 75
  feu: 0
  vitesse: 0
  essence: 0
  pneu: 0
  accident: 0
  volant: 0
  prio: 0
  citerne: 0
  increvable: 0
